Id,Prediction
0,6
1,4
2,9
3,5
4,2
5,8
6,0
7,3
8,1
9,6
10,1
11,7
12,1
13,3
14,4
15,5
16,8
17,2
18,3
19,2
20,7
21,1
22,1
23,8
24,0
25,5
26,0
27,7
28,3
29,2
30,8
31,3
32,4
33,4
34,1
35,8
36,6
37,0
38,2
39,4
40,7
41,9
42,0
43,5
44,2
45,5
46,1
47,0
48,2
49,7
50,6
51,2
52,0
53,2
54,6
55,2
56,7
57,0
58,2
59,1
60,4
61,1
62,2
63,3
64,6
65,3
66,7
67,1
68,3
69,2
70,0
71,4
72,5
73,9
74,6
75,3
76,7
77,9
78,9
79,1
80,0
81,0
82,2
83,5
84,1
85,1
86,1
87,5
88,0
89,1
90,8
91,1
92,0
93,0
94,3
95,2
96,2
97,2
98,0
99,8
100,7
101,3
102,1
103,7
104,2
105,4
106,4
107,3
108,2
109,7
110,9
111,1
112,3
113,0
114,9
115,3
116,5
117,9
118,4
119,4
120,9
121,1
122,2
123,0
124,6
125,4
126,9
127,7
128,1
129,1
130,6
131,1
132,9
133,1
134,7
135,5
136,1
137,3
138,9
139,4
140,8
141,7
142,6
143,9
144,0
145,0
146,4
147,1
148,8
149,6
150,5
151,0
152,3
153,0
154,4
155,1
156,2
157,2
158,0
159,8
160,2
161,6
162,9
163,8
164,7
165,7
166,8
167,9
168,2
169,7
170,2
171,1
172,1
173,0
174,3
175,1
176,7
177,6
178,9
179,9
180,1
181,6
182,7
183,7
184,1
185,5
186,7
187,8
188,1
189,6
190,3
191,8
192,8
193,9
194,0
195,2
196,3
197,2
198,3
199,6
200,4
201,6
202,7
203,9
204,9
205,1
206,4
207,9
208,5
209,9
210,1
211,7
212,0
213,5
214,2
215,8
216,6
217,6
218,1
219,4
220,7
221,3
222,0
223,2
224,6
225,1
226,0
227,2
228,8
229,3
230,4
231,6
232,1
233,3
234,2
235,7
236,7
237,7
238,1
239,4
240,0
241,9
242,2
243,0
244,7
245,9
246,0
247,0
248,1
249,7
250,8
251,7
252,0
253,3
254,2
255,6
256,4
257,0
258,6
259,0
260,7
261,7
262,0
263,0
264,7
265,1
266,0
267,4
268,4
269,6
270,1
271,7
272,9
273,6
274,1
275,2
276,1
277,9
278,3
279,5
280,4
281,9
282,5
283,3
284,4
285,6
286,3
287,3
288,8
289,6
290,9
291,9
292,8
293,0
294,7
295,6
296,1
297,2
298,6
299,1
300,2
301,8
302,2
303,4
304,9
305,0
306,0
307,7
308,0
309,7
310,6
311,3
312,7
313,1
314,7
315,6
316,3
317,7
318,9
319,2
320,5
321,2
322,0
323,3
324,8
325,5
326,0
327,4
328,7
329,6
330,2
331,2
332,6
333,3
334,4
335,1
336,7
337,1
338,1
339,7
340,1
341,2
342,8
343,0
344,7
345,0
346,4
347,4
348,7
349,9
350,9
351,2
352,6
353,9
354,1
355,2
356,8
357,2
358,8
359,4
360,5
361,9
362,9
363,4
364,1
365,7
366,7
367,1
368,2
369,1
370,8
371,5
372,4
373,1
374,8
375,1
376,4
377,6
378,8
379,9
380,9
381,6
382,3
383,7
384,5
385,4
386,6
387,7
388,4
389,8
390,8
391,2
392,7
393,0
394,7
395,7
396,4
397,7
398,3
399,6
400,5
401,1
402,2
403,1
404,6
405,2
406,1
407,7
408,8
409,1
410,7
411,4
412,5
413,3
414,1
415,9
416,2
417,2
418,2
419,4
420,8
421,2
422,3
423,4
424,7
425,6
426,4
427,8
428,2
429,6
430,7
431,7
432,2
433,4
434,6
435,6
436,7
437,9
438,7
439,7
440,8
441,8
442,3
443,0
444,5
445,8
446,7
447,7
448,7
449,6
450,5
451,1
452,4
453,4
454,0
455,6
456,7
457,7
458,4
459,0
460,1
461,6
462,8
463,3
464,4
465,9
466,1
467,9
468,5
469,5
470,6
471,0
472,3
473,5
474,1
475,9
476,7
477,3
478,2
479,2
480,1
481,1
482,0
483,8
484,5
485,6
486,0
487,8
488,1
489,3
490,8
491,7
492,6
493,2
494,6
495,1
496,3
497,7
498,7
499,5
500,6
501,0
502,6
503,4
504,2
505,1
506,2
507,4
508,4
509,1
510,5
511,4
512,2
513,8
514,4
515,0
516,8
517,7
518,5
519,4
520,4
521,6
522,3
523,1
524,4
525,4
526,2
527,0
528,5
529,7
530,7
531,7
532,0
533,9
534,4
535,9
536,5
537,5
538,6
539,0
540,9
541,8
542,3
543,0
544,0
545,4
546,3
547,3
548,9
549,9
550,9
551,9
552,1
553,7
554,6
555,9
556,8
557,3
558,7
559,8
560,7
561,6
562,3
563,2
564,7
565,2
566,7
567,7
568,4
569,1
570,0
571,2
572,3
573,1
574,6
575,3
576,7
577,6
578,9
579,1
580,9
581,4
582,3
583,4
584,1
585,4
586,2
587,6
588,3
589,7
590,2
591,6
592,8
593,2
594,1
595,2
596,5
597,2
598,6
599,5
600,0
601,3
602,2
603,5
604,5
605,0
606,5
607,6
608,2
609,9
610,5
611,2
612,4
613,0
614,9
615,0
616,7
617,0
618,4
619,0
620,7
621,2
622,9
623,0
624,2
625,1
626,5
627,6
628,4
629,0
630,4
631,6
632,7
633,4
634,3
635,1
636,8
637,2
638,2
639,0
640,8
641,8
642,0
643,2
644,3
645,6
646,7
647,4
648,6
649,4
650,1
651,9
652,3
653,1
654,2
655,4
656,4
657,7
658,2
659,3
660,4
661,8
662,6
663,7
664,0
665,0
666,4
667,0
668,7
669,8
670,1
671,3
672,7
673,6
674,1
675,7
676,9
677,6
678,3
679,1
680,8
681,1
682,2
683,2
684,4
685,1
686,2
687,1
688,4
689,9
690,6
691,4
692,6
693,6
694,7
695,1
696,7
697,8
698,8
699,2
700,3
701,9
702,6
703,5
704,3
705,9
706,8
707,2
708,0
709,0
710,7
711,0
712,8
713,2
714,1
715,6
716,9
717,9
718,6
719,1
720,0
721,6
722,2
723,3
724,9
725,0
726,0
727,6
728,1
729,8
730,7
731,5
732,7
733,7
734,6
735,3
736,8
737,2
738,4
739,2
740,6
741,6
742,2
743,6
744,7
745,6
746,6
747,3
748,0
749,4
750,5
751,7
752,7
753,6
754,4
755,2
756,4
757,6
758,1
759,1
760,0
761,6
762,8
763,8
764,6
765,0
766,8
767,3
768,3
769,9
770,1
771,9
772,7
773,9
774,7
775,6
776,0
777,8
778,4
779,0
780,7
781,2
782,7
783,2
784,6
785,2
786,2
787,0
788,8
789,0
790,6
791,7
792,3
793,9
794,0
795,6
796,4
797,1
798,5
799,4
800,2
801,4
802,3
803,2
804,2
805,4
806,6
807,8
808,4
809,9
810,1
811,0
812,1
813,4
814,7
815,7
816,0
817,7
818,3
819,3
820,1
821,6
822,1
823,6
824,4
825,3
826,1
827,1
828,0
829,7
830,1
831,3
832,9
833,5
834,9
835,7
836,1
837,1
838,5
839,4
840,9
841,6
842,9
843,3
844,7
845,4
846,5
847,3
848,5
849,9
850,1
851,4
852,2
853,7
854,0
855,1
856,0
857,4
858,5
859,4
860,0
861,1
862,1
863,2
864,2
865,2
866,4
867,0
868,0
869,4
870,3
871,1
872,3
873,7
874,3
875,7
876,9
877,2
878,1
879,3
880,7
881,6
882,9
883,2
884,0
885,2
886,2
887,4
888,1
889,7
890,0
891,1
892,0
893,8
894,2
895,9
896,0
897,2
898,6
899,0
900,7
901,3
902,6
903,9
904,6
905,0
906,1
907,7
908,7
909,7
910,2
911,9
912,8
913,7
914,2
915,1
916,2
917,2
918,1
919,9
920,1
921,2
922,0
923,2
924,2
925,2
926,2
927,9
928,4
929,9
930,9
931,4
932,4
933,4
934,0
935,0
936,6
937,7
938,0
939,1
940,3
941,8
942,4
943,1
944,6
945,3
946,4
947,8
948,7
949,1
950,5
951,2
952,1
953,3
954,3
955,8
956,2
957,5
958,3
959,0
960,8
961,1
962,1
963,6
964,3
965,2
966,6
967,7
968,8
969,4
970,6
971,1
972,3
973,3
974,6
975,1
976,6
977,6
978,1
979,5
980,0
981,2
982,9
983,4
984,2
985,6
986,3
987,3
988,8
989,7
990,5
991,9
992,5
993,1
994,5
995,6
996,2
997,6
998,4
999,3
